{
  "movie": {
    "title": "Harry Potter and the Philosopher's Stone",
    "info": {
      "release_year": 2001,
      "director": "Chris Columbus",
      "writers": ["J.K. Rowling", "Steve Kloves"],
      "runtime_minutes": 152
    },
    "characters": [
      {
        "name": "Harry Potter",
        "wand": "Phoenix Feather",
        "actor": "Daniel Radcliffe"
      },
      {
        "name": "Hermione Granger",
        "wand": "Vine Wood",
        "actor": "Emma Watson"
      },
      {
        "name": "Ron Weasley",
        "wand": "Willow",
        "actor": "Rupert Grint"
      }
    ]
  }
}

